{
	"resource": {
		"package_id": "nkk",
		"name": "nkk-v1-publications-documents",
		"hash": "nkk-v1-publications-documents__"
	},
	"fields": [
			{
				"id": "documentId",
				"type": "text"
			},
			{
				"id": "title",
				"type": "text"
			},
			{
				"id": "revision",
				"type": "int"
			},
			{
				"id": "version",
				"type": "int"
			}	
	],

	"primary_key": "documentId"
}